id	rsid	pos	allele1	allele2	average_maximum_posterior_call	controls_AA	controls_AB	controls_BB	controls_NULL	cases_AA	cases_AB	cases_BB	cases_NULL	frequentist_add	frequentist_gen	bayesian_add	bayesian_gen	sex_frequentist_add	sex_frequentist_gen	good_clustering
SNP_A-1916270	rs699	150887	C	T	0.999099	746	5117	8427	21	103	628	1137	0	0.273338	0.173656	-0.790885	-0.70737	0.458773	0.245085	1
SNP_A-4282185	rs829	208285	T	C	0.99916	2021	6911	5358	21	271	871	726	0	0.54818	0.365769	-1.01867	-1.03807	0.0969133	0.077536	1
SNP_A-2220545	rs2795	208366	A	T	0.999414	5349	6916	2030	16	724	870	272	2	0.548794	0.357262	-1.01891	-1.03865	0.115342	0.094099	1
SNP_A-1878089	rs2837	210071	A	G	0.999491	14283	18	0	10	1865	2	0	1	0.828459	0.828459	0.0181289	-0.0924285	0.442706	0.442706	1
SNP_A-2057202	rs2728	210341	T	G	0.998861	11133	2971	176	31	1391	436	36	5	0.000364413	0.0010456	1.82273	1.49654	0.0004963	0.00182247	1
SNP_A-2139230	rs998877	215051	C	G	0.998952	170	2963	11153	25	37	437	1391	3	0.000128685	0.000279129	2.22988	1.93688	0.000100387	0.000410802	1
SNP_A-2096516	rs121888	216485	T	C	0.999196	804	5253	8235	19	107	649	1107	5	0.256392	0.26911	-0.776362	-0.810703	0.511209	0.516331	1
SNP_A-2048515	rs4189	259728	AAGT	_	0.999549	1705	6617	5978	11	215	854	798	1	0.413829	0.712423	-0.947252	-1.00883	0.058654	0.19285	1
SNP_A-4272730	rs99999	263216	A	C	0.99552	181	2901	11051	178	38	434	1372	24	5.15485e-05	0.000172494	2.58502	2.20756	1.57518e-05	0.000101621	1