dbSNP ID	Chromosome	Physical Position (bp)	Associated Genes	Population	Completion Rate(N/M)	Hardy Weinberg pValue	Allele	Allele Count(Frequency)	Genotype	Genotype Count(Frequency)
rs699	1	792429	FLJ22639|FLJ40008|LOC388578|LOC284591	CASE	98.9510% (1132/1144)	1.000000	T|C	1881(0.831)|383(0.169)	TT|TC|CC	771(0.681)|339(0.299)|22(0.019)
rs829	1	808311	FLJ22639|LOC284591	CASE	99.6503% (1140/1144)	0.562282	A|G	263(0.115)|2017(0.885)	AA|AG|GG	17(0.015)|229(0.201)|894(0.784)
rs2795	1	1045729	LOC441868|LOC401934	CASE	99.8252% (1142/1144)	1.000000	T|C	335(0.147)|1949(0.853)	TT|TC|CC	24(0.021)|287(0.251)|831(0.728)
rs2837	1	1058627	FLJ20584|LOC401934	CASE	99.9126% (1143/1144)	0.951998	A|G	986(0.431)|1300(0.569)	AA|AG|GG	212(0.185)|562(0.492)|369(0.323)
rs2728	1	1061338	FLJ20584|LOC401934	CASE	100% (1144/1144)	0.769163	T|G	640(0.280)|1648(0.720)	TT|TG|GG	87(0.076)|466(0.407)|591(0.517)
rs737	1	1061581	FLJ20584|LOC401934	CASE	100% (1144/1144)	1.000000	C|G	1(0.000)|2287(1.000)	CG|CG|GG	0(0.000)|1(0.001)|1143(0.999)
rs242	1	1070488	FLJ20584	CASE	100% (1144/1144)	0.910641	T|_	356(0.156)|1932(0.844)	TT|T_|__	28(0.024)|300(0.262)|816(0.713)
rs4046281	19	1071463	FLJ20584	CASE	100% (1144/1144)	0.173682	C|T	611(0.267)|1677(0.733)	CC|CT|TT	72(0.063)|467(0.408)|605(0.529)
rs8896	MT	1088878		CASE	99.9126% (1143/1144)	0.520710	T|_	2051(0.897)|235(0.103)	__|_T|TT	922(0.807)|207(0.181)|14(0.012)
rs12187	Y	1089873		CASE	100% (1144/1144)	0.905142	C|T	1958(0.856)|330(0.144)	CC|CT|TT	838(0.733)|282(0.247)|24(0.021)
rs920	18	1101089	LOC254099	CASE	100% (1144/1144)	0.668922	A|C	1354(0.592)|934(0.408)	CC|CA|AA	397(0.347)|560(0.490)|187(0.163)
rs121888	Y	1102561	LOC254099	CASE	100% (1144/1144)	0.764539	T|C	1281(0.560)|1007(0.440)	CC|CT|TT	361(0.316)|559(0.489)|224(0.196)
rs699	1	792429	FLJ22639|FLJ40008|LOC388578|LOC284591	CONTROL	98.9510% (1132/1144)	1.000000	T|C	1881(0.831)|383(0.169)	TT|TC|CC	771(0.785)|339(0.232)|22(0.110)
rs829	1	808311	FLJ22639|LOC284591	CONTROL	99.6503% (1140/1144)	0.562282	A|G	263(0.115)|2017(0.885)	AA|AG|GG	17(0.017)|229(0.196)|894(0.786)
rs2795	1	1045729	LOC441868|LOC401934	CONTROL	99.8252% (1142/1144)	1.000000	T|C	335(0.147)|1949(0.853)	TT|TC|CC	24(0.021)|287(0.251)|831(0.728)
rs2837	1	1058627	FLJ20584|LOC401934	CONTROL	99.9126% (1143/1144)	0.951998	A|G	986(0.431)|1300(0.569)	AA|AG|GG	212(0.185)|562(0.492)|369(0.323)
rs2728	1	1061338	FLJ20584|LOC401934	CONTROL	100% (1144/1144)	0.769163	T|G	640(0.280)|1648(0.720)	TT|TG|GG	87(0.076)|466(0.407)|591(0.517)
rs737	1	1061581	FLJ20584|LOC401934	CONTROL	100% (1144/1144)	1.000000	C|G	1(0.000)|2287(1.000)	CG|CG|GG	0(0.000)|1(0.001)|1143(0.999)
rs242	1	1070488	FLJ20584	CONTROL	100% (1144/1144)	0.910641	T|_	356(0.156)|1932(0.844)	TT|T_|__	28(0.024)|300(0.262)|816(0.713)
rs4046281	19	1071463	FLJ20584	CONTROL	100% (1144/1144)	0.173682	C|T	611(0.267)|1677(0.733)	CC|CT|TT	72(0.063)|467(0.408)|605(0.529)
rs8896	MT	1088878		CONTROL	99.9126% (1143/1144)	0.520710	T|_	2051(0.897)|235(0.103)	__|_T|TT	922(0.807)|207(0.181)|14(0.012)
rs12187	Y	1089873		CONTROL	100% (1144/1144)	0.905142	C|T	1958(0.856)|330(0.144)	CC|CT|TT	838(0.733)|282(0.247)|24(0.021)
rs920	18	1101089	LOC254099	CONTROL	100% (1144/1144)	0.668922	A|C	1354(0.592)|934(0.408)	CC|CA|AA	397(0.347)|560(0.490)|187(0.163)
rs121888	Y	1102561	LOC254099	CONTROL	100% (1144/1144)	0.764539	T|C	1281(0.560)|1007(0.440)	CC|CT|TT	361(0.316)|559(0.489)|224(0.196)